%YAML 1.1
%TAG !u! tag:unity3d.com,2011:
--- !u!114 &11400000
MonoBehaviour:
  m_ObjectHideFlags: 0
  m_PrefabParentObject: {fileID: 0}
  m_PrefabInternal: {fileID: 0}
  m_GameObject: {fileID: 0}
  m_Enabled: 1
  m_EditorHideFlags: 0
  m_Script: {fileID: 11500000, guid: 1aedc97c3317cf44bb5e3ce553ce4dfa, type: 3}
  m_Name: hard_1
  m_EditorClassIdentifier: 
  _frames:
  - targetPositions:
    - {x: 3, y: 2}
    - {x: 3, y: 1}
    Settings: {fileID: 11400000, guid: d726af98e03f7674aa06edef96d73ebc, type: 2}
  - targetPositions:
    - {x: 2, y: 3}
    - {x: 1, y: 0}
    Settings: {fileID: 11400000, guid: d726af98e03f7674aa06edef96d73ebc, type: 2}
  - targetPositions:
    - {x: 1, y: 3}
    - {x: 2, y: 0}
    Settings: {fileID: 11400000, guid: d726af98e03f7674aa06edef96d73ebc, type: 2}
  - targetPositions:
    - {x: 0, y: 2}
    - {x: 0, y: 1}
    Settings: {fileID: 11400000, guid: d726af98e03f7674aa06edef96d73ebc, type: 2}
  _difficulty: 2
